%YAML 1.1
%TAG !u! tag:unity3d.com,2011:
--- !u!64 &7237896106075678131
MeshCollider:
  m_ObjectHideFlags: 0
  m_CorrespondingSourceObject: {fileID: 0}
  m_PrefabInstance: {fileID: 0}
  m_PrefabAsset: {fileID: 0}
  m_GameObject: {fileID: 2295714099204661435}
  m_Material: {fileID: 0}
  m_IsTrigger: 0
  m_Enabled: 1
  serializedVersion: 4
  m_Convex: 0
  m_CookingOptions: 30
  m_Mesh: {fileID: 4300000, guid: 5cbddee6fa556ed4dbf67a4f02f826fb, type: 3}
--- !u!1 &2870889700040016762
GameObject:
  m_ObjectHideFlags: 0
  m_CorrespondingSourceObject: {fileID: 0}
  m_PrefabInstance: {fileID: 0}
  m_PrefabAsset: {fileID: 0}
  serializedVersion: 6
  m_Component:
  - component: {fileID: 5155264535715678556}
  m_Layer: 0
  m_Name: GameObject
  m_TagString: Untagged
  m_Icon: {fileID: 0}
  m_NavMeshLayer: 0
  m_StaticEditorFlags: 0
  m_IsActive: 1
--- !u!4 &5155264535715678556
Transform:
  m_ObjectHideFlags: 0
  m_CorrespondingSourceObject: {fileID: 0}
  m_PrefabInstance: {fileID: 0}
  m_PrefabAsset: {fileID: 0}
  m_GameObject: {fileID: 2870889700040016762}
  m_LocalRotation: {x: 0, y: 0, z: 0, w: 1}
  m_LocalPosition: {x: 0, y: 0, z: 0}
  m_LocalScale: {x: 1, y: 1, z: 1}
  m_Children:
  - {fileID: 8093357742869645683}
  - {fileID: 2295714099204766875}
  m_Father: {fileID: 0}
  m_RootOrder: 0
  m_LocalEulerAnglesHint: {x: 0, y: 0, z: 0}
--- !u!64 &3157139186957802206
MeshCollider:
  m_ObjectHideFlags: 0
  m_CorrespondingSourceObject: {fileID: 0}
  m_PrefabInstance: {fileID: 0}
  m_PrefabAsset: {fileID: 0}
  m_GameObject: {fileID: 8093357742869222739}
  m_Material: {fileID: 0}
  m_IsTrigger: 0
  m_Enabled: 1
  serializedVersion: 4
  m_Convex: 0
  m_CookingOptions: 30
  m_Mesh: {fileID: 4300000, guid: 16c8394e6de71fe418ee7d27508f01df, type: 3}
--- !u!1001 &2295714099204630043
PrefabInstance:
  m_ObjectHideFlags: 0
  serializedVersion: 2
  m_Modification:
    m_TransformParent: {fileID: 5155264535715678556}
    m_Modifications:
    - target: {fileID: 100000, guid: 5cbddee6fa556ed4dbf67a4f02f826fb, type: 3}
      propertyPath: m_Name
      value: Floor Tile 03 (1)
      objectReference: {fileID: 0}
    - target: {fileID: 400000, guid: 5cbddee6fa556ed4dbf67a4f02f826fb, type: 3}
      propertyPath: m_RootOrder
      value: 1
      objectReference: {fileID: 0}
    - target: {fileID: 400000, guid: 5cbddee6fa556ed4dbf67a4f02f826fb, type: 3}
      propertyPath: m_LocalPosition.x
      value: -0
      objectReference: {fileID: 0}
    - target: {fileID: 400000, guid: 5cbddee6fa556ed4dbf67a4f02f826fb, type: 3}
      propertyPath: m_LocalPosition.y
      value: 0
      objectReference: {fileID: 0}
    - target: {fileID: 400000, guid: 5cbddee6fa556ed4dbf67a4f02f826fb, type: 3}
      propertyPath: m_LocalPosition.z
      value: 6
      objectReference: {fileID: 0}
    - target: {fileID: 400000, guid: 5cbddee6fa556ed4dbf67a4f02f826fb, type: 3}
      propertyPath: m_LocalRotation.w
      value: 1
      objectReference: {fileID: 0}
    - target: {fileID: 400000, guid: 5cbddee6fa556ed4dbf67a4f02f826fb, type: 3}
      propertyPath: m_LocalRotation.x
      value: 0.000000021855694
      objectReference: {fileID: 0}
    - target: {fileID: 400000, guid: 5cbddee6fa556ed4dbf67a4f02f826fb, type: 3}
      propertyPath: m_LocalRotation.y
      value: 0
      objectReference: {fileID: 0}
    - target: {fileID: 400000, guid: 5cbddee6fa556ed4dbf67a4f02f826fb, type: 3}
      propertyPath: m_LocalRotation.z
      value: -0
      objectReference: {fileID: 0}
    - target: {fileID: 400000, guid: 5cbddee6fa556ed4dbf67a4f02f826fb, type: 3}
      propertyPath: m_LocalEulerAnglesHint.x
      value: 0
      objectReference: {fileID: 0}
    - target: {fileID: 400000, guid: 5cbddee6fa556ed4dbf67a4f02f826fb, type: 3}
      propertyPath: m_LocalEulerAnglesHint.y
      value: 0
      objectReference: {fileID: 0}
    - target: {fileID: 400000, guid: 5cbddee6fa556ed4dbf67a4f02f826fb, type: 3}
      propertyPath: m_LocalEulerAnglesHint.z
      value: 0
      objectReference: {fileID: 0}
    m_RemovedComponents: []
  m_SourcePrefab: {fileID: 100100000, guid: 5cbddee6fa556ed4dbf67a4f02f826fb, type: 3}
--- !u!1 &2295714099204661435 stripped
GameObject:
  m_CorrespondingSourceObject: {fileID: 100000, guid: 5cbddee6fa556ed4dbf67a4f02f826fb,
    type: 3}
  m_PrefabInstance: {fileID: 2295714099204630043}
  m_PrefabAsset: {fileID: 0}
--- !u!4 &2295714099204766875 stripped
Transform:
  m_CorrespondingSourceObject: {fileID: 400000, guid: 5cbddee6fa556ed4dbf67a4f02f826fb,
    type: 3}
  m_PrefabInstance: {fileID: 2295714099204630043}
  m_PrefabAsset: {fileID: 0}
--- !u!1001 &8093357742869255155
PrefabInstance:
  m_ObjectHideFlags: 0
  serializedVersion: 2
  m_Modification:
    m_TransformParent: {fileID: 5155264535715678556}
    m_Modifications:
    - target: {fileID: 100000, guid: 16c8394e6de71fe418ee7d27508f01df, type: 3}
      propertyPath: m_Name
      value: Floor Tile 04
      objectReference: {fileID: 0}
    - target: {fileID: 400000, guid: 16c8394e6de71fe418ee7d27508f01df, type: 3}
      propertyPath: m_RootOrder
      value: 0
      objectReference: {fileID: 0}
    - target: {fileID: 400000, guid: 16c8394e6de71fe418ee7d27508f01df, type: 3}
      propertyPath: m_LocalPosition.x
      value: -0
      objectReference: {fileID: 0}
    - target: {fileID: 400000, guid: 16c8394e6de71fe418ee7d27508f01df, type: 3}
      propertyPath: m_LocalPosition.y
      value: 0
      objectReference: {fileID: 0}
    - target: {fileID: 400000, guid: 16c8394e6de71fe418ee7d27508f01df, type: 3}
      propertyPath: m_LocalPosition.z
      value: 0
      objectReference: {fileID: 0}
    - target: {fileID: 400000, guid: 16c8394e6de71fe418ee7d27508f01df, type: 3}
      propertyPath: m_LocalRotation.w
      value: 1
      objectReference: {fileID: 0}
    - target: {fileID: 400000, guid: 16c8394e6de71fe418ee7d27508f01df, type: 3}
      propertyPath: m_LocalRotation.x
      value: 0.000000021855694
      objectReference: {fileID: 0}
    - target: {fileID: 400000, guid: 16c8394e6de71fe418ee7d27508f01df, type: 3}
      propertyPath: m_LocalRotation.y
      value: 0
      objectReference: {fileID: 0}
    - target: {fileID: 400000, guid: 16c8394e6de71fe418ee7d27508f01df, type: 3}
      propertyPath: m_LocalRotation.z
      value: -0
      objectReference: {fileID: 0}
    - target: {fileID: 400000, guid: 16c8394e6de71fe418ee7d27508f01df, type: 3}
      propertyPath: m_LocalEulerAnglesHint.x
      value: 0
      objectReference: {fileID: 0}
    - target: {fileID: 400000, guid: 16c8394e6de71fe418ee7d27508f01df, type: 3}
      propertyPath: m_LocalEulerAnglesHint.y
      value: 0
      objectReference: {fileID: 0}
    - target: {fileID: 400000, guid: 16c8394e6de71fe418ee7d27508f01df, type: 3}
      propertyPath: m_LocalEulerAnglesHint.z
      value: 0
      objectReference: {fileID: 0}
    m_RemovedComponents: []
  m_SourcePrefab: {fileID: 100100000, guid: 16c8394e6de71fe418ee7d27508f01df, type: 3}
--- !u!1 &8093357742869222739 stripped
GameObject:
  m_CorrespondingSourceObject: {fileID: 100000, guid: 16c8394e6de71fe418ee7d27508f01df,
    type: 3}
  m_PrefabInstance: {fileID: 8093357742869255155}
  m_PrefabAsset: {fileID: 0}
--- !u!4 &8093357742869645683 stripped
Transform:
  m_CorrespondingSourceObject: {fileID: 400000, guid: 16c8394e6de71fe418ee7d27508f01df,
    type: 3}
  m_PrefabInstance: {fileID: 8093357742869255155}
  m_PrefabAsset: {fileID: 0}
